@startuml
'https://plantuml.com/object-diagram

map KeySet {
    CredType => int
    Aeskey => AES key in byte array
    X => X coordinate of ECDSA public key
    Y => Y coordinate of ECDSA public
}

map Keys {
    0 *---> KeySet
    1 *---> KeySet
    ... *---> KeySet
}

map Bundle {
    Version => Bundle version
    Date => UNIX timestamp
    Keys *----> Keys
}

map "COSE_Signature Protected Headers" as sigprot {
    alg => ES512
}

map "COSE_Signature Unprotected Headers" as sigunprot {
    kid => PoNC key ID
}

map COSE_Signature {
    Protected Headers *---> sigprot
    Unprotected Headers *---> sigunprot
    signature => Cryptographic signature
}

map COSE_Signatures {
    PoNC signature *---> COSE_Signature
}

map SignedBundle {
    CBOR Tag => 98
    Protected Headers => empty
    Unprotected Headers => empty
    Payload *---> Bundle
    Signatures *---> COSE_Signatures
}

@enduml
