@startuml
"Tester"->"Citizen": Tests
"Citizen"->"Tester": Gives ID number
"Tester"->"Issuer interface": Registers PoNC credential/ID number
"Issuer interface"->"Tester": Gives out PoNC download URL + PIN
"Tester"->"Citizen": Gives out PoNC download URL + PIN
"Tester"->"Issuer interface": Registers results when available
"Issuer interface"->"PoNC download site": Publishes PoNC 
"Citizen"->"PoNC download site": Downloads PoNC
@enduml
