@startuml
'https://plantuml.com/activity-diagram-beta

title Issuer key update flow

start
    floating note left
        Period is one calendar day
        for COVID test keys, 90
        calendar days for vaccine keys.
    endnote
    repeat
    repeat :Check for new period.;
    repeat while (New period started?) is (no) not (yes)
        :Start using keys for new period;

        :Check keys for next period;
        if (Keys present for next period?) then (no)
            :Generate new keys for next period;
        endif

        repeat :Submit keys to PoNC KMS;
        repeat while (KMS Accepted keys?) is (No) not (Yes)

        :Save keys for next period;
    repeat while
@enduml
