@startuml
title Verification flow

|Verifier|
start
:Loads verification app;

|Citizen|
:Offers PoNC QR code for scanning;

|Verification app|
:Returns valid PoNC and Document ID;

|Citizen|
:Shows document;

|Verifier|
:Verifies document ID and document holder;

stop
@enduml
